<svg width="26" height="26" viewBox="0 0 26 26" fill="none" xmlns="http://www.w3.org/2000/svg">
<path d="M9.72965 25.1761C8.93995 25.1761 8.18713 24.8317 7.67029 24.2292L1.16183 16.636C0.187216 15.4986 0.318965 13.7869 1.4563 12.8123C2.59314 11.8366 4.3048 11.9683 5.28057 13.1063L9.53545 18.07L22.9831 1.85418C25.0647 -1.06159 27.2434 0.553042 25.1526 3.48128L11.936 24.0404C11.4512 24.7189 10.6815 25.1365 9.84901 25.1734C9.80882 25.1751 9.76927 25.1761 9.72965 25.1761Z" fill="white"/>
</svg>
